<svg width="62" height="73" viewBox="0 0 62 73" fill="none" xmlns="http://www.w3.org/2000/svg">
<path d="M54.328 17.1538H44.4394C44.082 17.1538 43.6388 16.9227 43.2932 16.5581L40.0395 11.4601C38.8398 9.52881 38.1249 9.52881 35.9804 9.52881H25.0195C22.8749 9.52881 22.2792 9.52881 20.9603 11.4601L17.7066 16.5581C17.4421 16.8464 17.0704 17.1538 16.6796 17.1538V15.2476C16.6796 14.9948 16.5792 14.7523 16.4005 14.5736C16.2217 14.3949 15.9793 14.2944 15.7265 14.2944H10.9609C10.7081 14.2944 10.4657 14.3949 10.2869 14.5736C10.1082 14.7523 10.0077 14.9948 10.0077 15.2476V17.1538H6.67181C5.91346 17.1538 5.18617 17.4551 4.64993 17.9913C4.11369 18.5275 3.81244 19.2548 3.81244 20.0132V48.6069C3.81244 49.3653 4.11369 50.0926 4.64993 50.6288C5.18617 51.165 5.91346 51.4663 6.67181 51.4663H54.328C55.0864 51.4663 55.8137 51.165 56.3499 50.6288C56.8862 50.0926 57.1874 49.3653 57.1874 48.6069V20.0132C57.1874 19.2548 56.8862 18.5275 56.3499 17.9913C55.8137 17.4551 55.0864 17.1538 54.328 17.1538ZM30.4999 43.8413C24.8026 43.8413 20.0442 39.7631 19.1816 34.3101H13.9835L20.9687 27.3248L27.9539 34.3101H23.1132C23.4346 35.5504 24.063 36.69 24.9405 37.6236C25.818 38.5572 26.9165 39.255 28.1346 39.6525C29.3527 40.0499 30.6513 40.1344 31.9106 39.8981C33.1699 39.6617 34.3495 39.1122 35.3406 38.3001L38.1249 40.8628L37.6865 41.306C35.6482 42.9423 33.1138 43.8365 30.4999 43.8413V43.8413ZM40.0312 37.4268L33.015 30.4976H37.8866C37.5615 29.2544 36.9287 28.1131 36.0465 27.1788C35.1644 26.2445 34.0613 25.5472 32.8388 25.1513C31.6164 24.7554 30.3139 24.6735 29.0515 24.9132C27.7891 25.153 26.6074 25.7066 25.6152 26.523L22.8749 23.8257L23.249 23.5338C25.2904 21.8744 27.8406 20.9678 30.4713 20.9663C36.1722 20.9663 40.8366 25.0397 41.6991 30.4976H47.0509L40.0312 37.4268Z" fill="#F09813"/>
<rect x="13" y="20" width="35" height="29" fill="#F09813"/>
<rect x="24.7094" y="48.0447" width="20.2002" height="17.8427" transform="rotate(-27.6928 24.7094 48.0447)" fill="#5B2089"/>
<rect x="18.1616" y="38.7071" width="19.9572" height="14.4522" transform="rotate(27.5016 18.1616 38.7071)" fill="#8E25E1"/>
<path d="M31.8964 54.0511C31.4431 54.0847 30.9855 54.1016 30.5236 54.1016C29.9617 54.1016 29.4064 54.0758 28.8574 54.0275C26.1419 53.7867 23.5104 52.9619 21.1433 51.6096C18.7762 50.2572 16.7293 48.4092 15.1429 46.1921C15.1011 46.1325 15.0449 46.0845 14.9794 46.0526C14.914 46.0207 14.8416 46.0059 14.7689 46.0096C14.6962 46.0134 14.6256 46.0356 14.5638 46.0741C14.5021 46.1125 14.4511 46.1661 14.4156 46.2297L6.68128 60.1301C6.38694 60.6672 6.34075 61.3117 6.6512 61.8359C6.81281 62.0959 7.03794 62.3104 7.30537 62.4592C7.57281 62.6081 7.87374 62.6864 8.17981 62.6867H16.5587C16.8506 62.6759 17.1401 62.7432 17.3972 62.8816C17.6544 63.02 17.87 63.2246 18.0218 63.4741L22.1747 70.4211C22.3267 70.6789 22.5423 70.8933 22.801 71.0438C23.0596 71.1942 23.3526 71.2757 23.6518 71.2805C24.2899 71.245 24.9505 70.8304 25.2158 70.2492L32.3175 54.6569C32.3482 54.5892 32.3607 54.5147 32.354 54.4406C32.3472 54.3666 32.3213 54.2956 32.2789 54.2345C32.2365 54.1735 32.1789 54.1245 32.1119 54.0923C32.0448 54.0602 31.9706 54.046 31.8964 54.0511V54.0511Z" fill="#8E25E1"/>
<path d="M54.3089 60.0968L46.625 46.2211C46.5895 46.1581 46.5387 46.1051 46.4772 46.067C46.4158 46.0289 46.3458 46.0068 46.2736 46.003C46.2014 45.9991 46.1294 46.0136 46.0643 46.0449C45.9991 46.0763 45.9429 46.1236 45.9009 46.1824C43.7878 49.1431 40.8676 51.4334 37.4887 52.7802C37.0739 52.9438 36.7382 53.2613 36.552 53.6665L32.5924 62.3784C32.5415 62.4896 32.5151 62.6105 32.5151 62.7329C32.5151 62.8552 32.5415 62.9762 32.5924 63.0874L35.8441 70.2406C36.1073 70.8218 36.7669 71.2461 37.4039 71.2815C37.7033 71.2741 37.9958 71.1901 38.2535 71.0374C38.5112 70.8846 38.7253 70.6684 38.8756 70.4093L43.0145 63.4719C43.325 62.9509 43.8879 62.6845 44.4948 62.6878H52.9564C53.6729 62.6878 54.2154 62.3139 54.4603 61.6135C54.5464 61.3648 54.5774 61.1004 54.5513 60.8385C54.5251 60.5766 54.4424 60.3235 54.3089 60.0968V60.0968Z" fill="#5B2189"/>
<path d="M30.5277 40.347C33.376 40.347 35.685 38.0385 35.685 35.1907C35.685 32.343 33.376 30.0345 30.5277 30.0345C27.6794 30.0345 25.3704 32.343 25.3704 35.1907C25.3704 38.0385 27.6794 40.347 30.5277 40.347Z" fill="#FBFF44"/>
<path d="M30.5278 19.7188C21.9964 19.7188 15.0591 26.6572 15.0591 35.1875C15.0591 43.7179 21.9996 50.6563 30.5278 50.6563C39.056 50.6563 45.9965 43.7168 45.9965 35.1875C45.9965 26.6582 39.0582 19.7188 30.5278 19.7188ZM30.5278 43.7813C28.8281 43.7813 27.1666 43.2773 25.7534 42.333C24.3401 41.3887 23.2387 40.0465 22.5882 38.4762C21.9378 36.9059 21.7676 35.178 22.0992 33.511C22.4308 31.8439 23.2492 30.3127 24.4511 29.1108C25.653 27.909 27.1842 27.0905 28.8512 26.7589C30.5183 26.4273 32.2462 26.5975 33.8165 27.2479C35.3868 27.8984 36.7289 28.9999 37.6732 30.4131C38.6175 31.8263 39.1215 33.4878 39.1215 35.1875C39.1187 37.4659 38.2124 39.6501 36.6014 41.2611C34.9903 42.8721 32.8061 43.7784 30.5278 43.7813V43.7813Z" fill="#FFD232"/>
<path d="M61.9079 12.7543C61.831 12.603 61.6386 12.5274 61.4847 12.4896C60.5999 12.4896 52.9829 12.1871 52.9829 3.49149C52.9829 3.22684 52.7521 3 52.4828 3C52.2135 3 51.9827 3.22684 51.9827 3.49149C51.9827 12.1871 44.3657 12.4896 43.5193 12.4896C43.4039 12.4896 43.2885 12.5274 43.2116 12.603C43.1346 12.6408 43.0962 12.7164 43.0577 12.7543C42.9808 12.9055 42.9808 13.0945 43.0577 13.2457C43.1346 13.397 43.327 13.5104 43.5193 13.5104C43.5193 13.5104 43.5193 13.5104 43.5578 13.5104C44.4426 13.5104 52.0212 13.8129 52.0212 22.5085C52.0212 22.7732 52.252 23 52.5213 23C52.7906 23 53.0214 22.7732 53.0214 22.5085C53.0214 13.8507 60.5999 13.5104 61.4847 13.5104C61.6771 13.5104 61.831 13.397 61.9464 13.2457C62.0233 13.0945 62.0233 12.9055 61.9079 12.7543Z" fill="white"/>
<path d="M50.9467 26.8526C50.9021 26.7618 50.7908 26.7164 50.7017 26.6938C50.1894 26.6938 45.7796 26.5123 45.7796 21.2949C45.7796 21.1361 45.6459 21 45.49 21C45.3341 21 45.2005 21.1361 45.2005 21.2949C45.2005 26.5123 40.7907 26.6938 40.3007 26.6938C40.2339 26.6938 40.167 26.7164 40.1225 26.7618C40.078 26.7845 40.0557 26.8299 40.0334 26.8526C39.9889 26.9433 39.9889 27.0567 40.0334 27.1474C40.078 27.2382 40.1893 27.3062 40.3007 27.3062C40.3007 27.3062 40.3007 27.3062 40.3229 27.3062C40.8352 27.3062 45.2228 27.4877 45.2228 32.7051C45.2228 32.8639 45.3564 33 45.5123 33C45.6682 33 45.8019 32.8639 45.8019 32.7051C45.8019 27.5104 50.1894 27.3062 50.7017 27.3062C50.8131 27.3062 50.9021 27.2382 50.969 27.1474C51.0135 27.0567 51.0135 26.9433 50.9467 26.8526Z" fill="white"/>
<path d="M61.9564 31.8771C61.9199 31.8015 61.8288 31.7637 61.7559 31.7448C61.3368 31.7448 57.7287 31.5936 57.7287 27.2457C57.7287 27.1134 57.6194 27 57.4919 27C57.3643 27 57.255 27.1134 57.255 27.2457C57.255 31.5936 53.6469 31.7448 53.246 31.7448C53.1913 31.7448 53.1367 31.7637 53.1002 31.8015C53.0638 31.8204 53.0456 31.8582 53.0273 31.8771C52.9909 31.9527 52.9909 32.0473 53.0273 32.1229C53.0638 32.1985 53.1549 32.2552 53.246 32.2552C53.246 32.2552 53.246 32.2552 53.2642 32.2552C53.6833 32.2552 57.2732 32.4064 57.2732 36.7543C57.2732 36.8866 57.3825 37 57.5101 37C57.6376 37 57.747 36.8866 57.747 36.7543C57.747 32.4253 61.3368 32.2552 61.7559 32.2552C61.847 32.2552 61.9199 32.1985 61.9746 32.1229C62.011 32.0473 62.011 31.9527 61.9564 31.8771Z" fill="white"/>
</svg>
